{
  "count": 573,
  "next": "https://wger.de/api/v2/exercise/?page=2",
  "previous": null,
  "results": [
    {
      "id": 597,
      "license_author": "txmyrmidon",
      "status": "1",
      "description": "<p>Dead lift with legs pulling weight off the ground</p>",
      "name": "",
      "name_original": "",
      "creation_date": "2018-09-17",
      "uuid": "80f8a8c4-ad5a-4da6-944a-b90fa4dde0ad",
      "license": 2,
      "category": 8,
      "language": 2,
      "muscles": [],
      "muscles_secondary": [],
      "equipment": []
    },
    {
      "id": 536,
      "license_author": "Metin",
      "status": "1",
      "description": "One does not accumulate but eliminate .  It is not daily increase but daily  decrease. The height of cultivation  always runs to simplicity.",
      "name": "",
      "name_original": "",
      "creation_date": "2018-01-15",
      "uuid": "65a42fef-cf6d-4a96-9ab8-7d99cb5cb8b9",
      "license": 2,
      "category": 10,
      "language": 2,
      "muscles": [],
      "muscles_secondary": [],
      "equipment": []
    },
    {
      "id": 538,
      "license_author": "Metin",
      "status": "1",
      "description": "Get onto all fours and prop yourself up on your forearms. \"Turn your palms up toward the sky, keeping your thumbs on the ground, and form a straight line from your head to your heels,\" Dunham says. Squeeze your glutes and quads, which will draw your knees up and prevent sagging. \"Brace your core as if you were expecting a kick to the stomach, and press your forearms into the ground,\" he adds. Once you feel everything tighten, squeeze even harder and take big, deliberate breaths as you plank. To increase the challenge, squeeze harder and exhale more air with each breath as you hold the position.",
      "name": "",
      "name_original": "",
      "creation_date": "2018-01-15",
      "uuid": "9b898763-ad9c-4a7e-b5ff-4ceeee5fb26d",
      "license": 2,
      "category": 10,
      "language": 2,
      "muscles": [],
      "muscles_secondary": [],
      "equipment": []
    },
    {
      "id": 475,
      "license_author": "lotd",
      "status": "1",
      "description": "Dolor dolor quia molestiae accusantium libero et dolores voluptatem. Quis molestiae non quam tempora ab veritatis totam. Reprehenderit enim dolore aut ipsa repudiandae possimus aspernatur. Eligendi tempore beatae labore id aut. Dolorem iusto est odio.",
      "name": "",
      "name_original": "",
      "creation_date": "2017-07-16",
      "uuid": "1d00cd6f-f59d-4c84-aedf-b8440043552d",
      "license": 2,
      "category": 14,
      "language": 2,
      "muscles": [],
      "muscles_secondary": [],
      "equipment": []
    },
    {
      "id": 453,
      "license_author": "Voman85",
      "status": "1",
      "description": "This exercise entails anything involving soccer, including any exercises that are soccer-related.",
      "name": "",
      "name_original": "",
      "creation_date": "2017-03-06",
      "uuid": "3096c0f2-db79-4ba0-bcfe-f550097f2122",
      "license": 2,
      "category": 9,
      "language": 2,
      "muscles": [],
      "muscles_secondary": [],
      "equipment": []
    },
    {
      "id": 535,
      "license_author": "Metin",
      "status": "1",
      "description": "5 minutes Set a time limit for however long you have to exercise. Complete as many reps as you can of your exercise of choice in that time, then work to do more reps the next time you repeat the routine.",
      "name": "",
      "name_original": "",
      "creation_date": "2018-01-15",
      "uuid": "07069f6e-4984-4d65-847b-4d7973e6eea4",
      "license": 2,
      "category": 10,
      "language": 2,
      "muscles": [],
      "muscles_secondary": [],
      "equipment": []
    },
    {
      "id": 539,
      "license_author": "Metin",
      "status": "1",
      "description": "The plank is one of the most common core exercises, ever, but most guys get it wrong. Creating tension in your abs primes your body to maximally contract all of its muscles. \"This is a very useful ability when sprinting, jumping, and lifting weights,\" Dunham says",
      "name": "",
      "name_original": "",
      "creation_date": "2018-01-15",
      "uuid": "c553c81c-aad3-4f6a-b3ad-4e5c7cd28d3c",
      "license": 2,
      "category": 10,
      "language": 2,
      "muscles": [],
      "muscles_secondary": [],
      "equipment": []
    },
    {
      "id": 436,
      "license_author": "Andrew Carothers",
      "status": "1",
      "description": "<p>1 Minute for each exercise</p>\n<ol>\n<li>Hold feet 6 inches off ground</li>\n<li>Crunches</li>\n<li>Side Crunches (L)</li>\n<li>Side Crunches (R)</li>\n<li>Heel Touches</li>\n<li>Plank Crunch</li>\n<li>Scissor Kicks</li>\n<li>Swim Kicks</li>\n<li>V Crunches</li>\n<li>Hold feet 6 in off ground</li>\n</ol>\n<p>Exercises can be substituted to vary workout</p>",
      "name": "10 Min Abs",
      "name_original": "10 Min Abs",
      "creation_date": "2016-12-09",
      "uuid": "3c5f6e1c-cb22-4a9f-a13e-d14afeb29175",
      "license": 2,
      "category": 10,
      "language": 2,
      "muscles": [],
      "muscles_secondary": [],
      "equipment": []
    },
    {
      "id": 345,
      "license_author": "deusinvictus",
      "status": "2",
      "description": "<p>Two Handed Russian Style Kettlebell swing</p>",
      "name": "2 Handed Kettlebell Swing",
      "name_original": "2 Handed Kettlebell swing",
      "creation_date": "2015-08-03",
      "uuid": "c788d643-150a-4ac7-97ef-84643c6419bf",
      "license": 2,
      "category": 10,
      "language": 2,
      "muscles": [],
      "muscles_secondary": [],
      "equipment": [10]
    },
    {
      "id": 449,
      "license_author": "HansAndFrans",
      "status": "1",
      "description": "With a deck of cards, pick a card and do push ups relating to the number value on the card. For example if a Jack of Hearts is picked, do 10 pushups.",
      "name": "52",
      "name_original": "52",
      "creation_date": "2017-02-17",
      "uuid": "56f2ca98-74dc-4b6f-a189-cefaab66d2ac",
      "license": 2,
      "category": 13,
      "language": 2,
      "muscles": [],
      "muscles_secondary": [],
      "equipment": []
    },
    {
      "id": 350,
      "license_author": "Magenta",
      "status": "1",
      "description": "<p></p>\n<p>60 secondi per ogni stazione, ripetere tutto 2 volte</p>\n<p>1. gambe alte ferme, cercando di portare i glutei più vicino possibile al muro</p>\n<p>2. portare la gamba destra \"ad ore 3\", quanto più largo possibile; la gamba sinistra è ferma in alto</p>\n<p>3. portare la gamba sinistra \"ad ore 9\", quanto più largo possibile; la gamba destra è ferma in alto</p>\n<p>4. partendo da posizione base, allargare entrabe le gambe il più possibile (per raggiungere le \"10 e 10\")</p>\n<p>5. gambe piegate a rana e piedi appoggiati al muro (il lato destro del piede destro, per capirci, tocca il muro, viceversa per il sinistro): spingere con le mani in zona ginocchia verso il muro per avvicinarle</p>",
      "name": "Aalex Gambe Alte al Muro",
      "name_original": "Aalex Gambe alte al muro",
      "creation_date": "2015-10-12",
      "uuid": "c6601887-047b-4964-a629-f0b912c838ca",
      "license": 2,
      "category": 9,
      "language": 2,
      "muscles": [],
      "muscles_secondary": [],
      "equipment": []
    },
    {
      "id": 616,
      "license_author": "shahrukh",
      "status": "1",
      "description": "After you submit the form, the administrators will be notified. Once it is reviewed, it will be added to the database. Till this happens, it will not be visible in the overview or the search. In case you added your email when you registered, you will get notified when the process is completed successfully.",
      "name": "Abcd",
      "name_original": "abcd",
      "creation_date": "2018-11-12",
      "uuid": "056496e0-62d2-415f-b87a-435eb3c8b9f7",
      "license": 2,
      "category": 10,
      "language": 2,
      "muscles": [],
      "muscles_secondary": [],
      "equipment": []
    },
    {
      "id": 174,
      "license_author": "flori",
      "status": "2",
      "description": "<ul>\n<li>in eine aufrechte Position setzen, bei der die Beine hüftbreit geöffnet sind</li>\n<li>den Rücken, die Knie und die Oberschenkelaußenseite an die jeweiligen Polster pressen</li>\n<li>mit den Händen an den Griffen festhalten</li>\n<li>die Oberschenkel bis zum Anschlagpunkt der Hebelarme auseinander drücken</li>\n<li>danach die Beine wieder zusammen führen</li>\n<li>das Gesäß nicht vom Sitz abheben</li>\n<li>beim Auseinanderdrücken der Hebelarme aus- und beim Zusammenführen einatmen</li>\n</ul>",
      "name": "Abduktoren-Maschine",
      "name_original": "Abduktoren-Maschine",
      "creation_date": "2013-07-19",
      "uuid": "99881bdd-43d7-4c3b-82ed-9c187d0455b7",
      "license": 1,
      "category": 9,
      "language": 1,
      "muscles": [8, 6],
      "muscles_secondary": [11],
      "equipment": []
    },
    {
      "id": 560,
      "license_author": "gustavo",
      "status": "1",
      "description": "Get Ripped Abs Get Ripped Abs Get Ripped Abs Get Ripped AbsGet Ripped AbsGet Ripped Abs Get Ripped Absv Get Ripped Abs vGet Ripped AbsGet Ripped AbsGet Ripped AbsGet Ripped Abs",
      "name": "Abs",
      "name_original": "Abs",
      "creation_date": "2018-03-30",
      "uuid": "11fdac20-572c-4d6d-9fc3-78e4298b62b2",
      "license": 2,
      "category": 10,
      "language": 4,
      "muscles": [],
      "muscles_secondary": [],
      "equipment": []
    },
    {
      "id": 223,
      "license_author": "Marius",
      "status": "2",
      "description": "<p>Oberschenkel Innenseite!</p>",
      "name": "Adduktoren Maschine",
      "name_original": "Adduktoren Maschine",
      "creation_date": "2014-02-26",
      "uuid": "e56d0a17-b1b8-427d-991e-97c530c7db6a",
      "license": 1,
      "category": 9,
      "language": 1,
      "muscles": [],
      "muscles_secondary": [],
      "equipment": []
    },
    {
      "id": 607,
      "license_author": "thetalonlawson",
      "status": "1",
      "description": "<p>Engage abs, then alternate between tapping your left and right ankle by reaching either side with your arm extended.</p>",
      "name": "Ankle Taps",
      "name_original": "Ankle Taps",
      "creation_date": "2018-10-16",
      "uuid": "0d9a3d8c-ee81-4b21-9cd0-7d1c9e58cf80",
      "license": 2,
      "category": 10,
      "language": 2,
      "muscles": [14],
      "muscles_secondary": [],
      "equipment": [7]
    },
    {
      "id": 410,
      "license_author": "spacetowaste",
      "status": "1",
      "description": "<p>Opposite of hollow hold. Lie on stomach with arms and legs extended. See https://www.youtube.com/watch?v=44ScXWFaVBs&amp;feature=youtu.be&amp;t=7m51s</p>",
      "name": "Arch Hold",
      "name_original": "Arch Hold",
      "creation_date": "2016-07-31",
      "uuid": "3ec8f0a8-339b-419f-b03d-f9e215834a63",
      "license": 3,
      "category": 10,
      "language": 2,
      "muscles": [],
      "muscles_secondary": [],
      "equipment": []
    },
    {
      "id": 434,
      "license_author": "johndoe",
      "status": "1",
      "description": "<p>Hallå du gamle indian, mår du bra?</p>",
      "name": "Armhävning",
      "name_original": "Armhävning",
      "creation_date": "2016-11-13",
      "uuid": "3019297c-7a14-4657-81bc-0a7478c41fb8",
      "license": 2,
      "category": 11,
      "language": 10,
      "muscles": [],
      "muscles_secondary": [],
      "equipment": []
    },
    {
      "id": 433,
      "license_author": "johndoe",
      "status": "1",
      "description": "<p>Armhävning, inte så jäkla komplicerat</p>",
      "name": "Armhävning",
      "name_original": "Armhävning",
      "creation_date": "2016-11-13",
      "uuid": "bc9e4d85-d7e5-4194-8489-26fc1560c1d2",
      "license": 2,
      "category": 11,
      "language": 10,
      "muscles": [],
      "muscles_secondary": [],
      "equipment": []
    },
    {
      "id": 478,
      "license_author": "admintest123",
      "status": "1",
      "description": "<p>Arms exercise sdfg asdg asf sdfg sdfg sdfgsdf gsdf g sgsdf gsdfg sdfg alk fl;asdf ;ansd;kf na;klsdnfla nsd l;knalksdf adsfadsf a</p>",
      "name": "Arms",
      "name_original": "Arms",
      "creation_date": "2017-08-15",
      "uuid": "a93b478f-9fc4-413d-837d-3676187a457c",
      "license": 2,
      "category": 8,
      "language": 2,
      "muscles": [1, 11, 8, 14, 4],
      "muscles_secondary": [11, 12, 10],
      "equipment": [1, 8, 4]
    }
  ]
}
